[1389001500000,20.299999],
[1389001800000,20.700001],
[1389003720000,20.600000],
[1389005640000,20.600000],
[1389007560000,20.600000],
[1389009480000,20.600000],
[1389011400000,20.500000],
[1389013320000,20.500000],
[1389015240000,20.500000],
[1389001500000,20.299999],
[1389001800000,20.700001],
[1389003720000,20.600000],
[1389005640000,20.600000],
[1389007560000,20.600000],
[1389009480000,20.600000],
[1389011400000,20.500000],
[1389013320000,20.500000],
[1389015240000,20.500000],
